"","namesGraph","inDegreeEnt"
"1","Meat Products",9.5637138344332
"2","Cheese",7.93407270247933
"3","Eggs",8.71716049352638
"4","Milk Products",7.92853198852436
"5","Poultry Products",8.45120449092487
"6","Vegetables",8.98952082069471
