"","Modnames","K","AICc","Delta_AICc","ModelLik","AICcWt","LL","Cum.Wt"
"2","lognormal",2,-595.878585817147,0,1,0.99821631564098,299.949177587322,0.99821631564098
"1","Weibull",2,-582.764674497637,13.11391131951,0.00142020271608014,0.00141766952270883,293.392221927567,0.999633985163689
"3","gamma",2,-580.056482993033,15.8221028241144,0.000366668857795748,0.000366014836289158,292.038126175264,0.999999999999978
"4","beta",2,-533.020374796688,62.8582110204592,2.24136665057239e-14,2.23736875993494e-14,268.520072077092,1
