"","Modnames","K","AICc","Delta_AICc","ModelLik","AICcWt","LL","Cum.Wt"
"4","beta",2,-328.987672198843,0,1,1,166.519477125062,1
"1","Weibull",2,278.864001440698,607.851673639541,1.01551457598779e-132,1.01551457598779e-132,-137.406359694708,1
"3","gamma",2,322.168601142804,651.156273341647,4.01062277333561e-142,4.01062277333561e-142,-159.058659545761,1
"2","lognormal",2,481.284752720058,810.272424918901,1.12610402218934e-176,1.12610402218934e-176,-238.616735334388,1
